module github.com/saparatayev/go_bookstore_11p

go 1.17

require (
	github.com/go-sql-driver/mysql v1.6.0 // indirect
	github.com/gorilla/mux v1.8.0 // indirect
	github.com/jinzhu/gorm v1.9.16 // indirect
	github.com/jinzhu/inflection v1.0.0 // indirect
)
